Assignment 4: K Means Clustering
…
#finding duplicate id's and adding up the number of dups... BAM!
K1idtest <- count(group_by(K1,id)) 
K1idtest

## # A tibble: 30 x 2
## # Groups:   id [30]
##          id     n
##       <int> <int>
##  1 10002216     1
##  2 10003216     1
##  3 10004216     1
##  4 10005216     1
##  5 10006216     1
##  6 10007216     1
##  7 10008216     1
##  8 10009216     1
##  9 10010216     1
## 10 10011216     1
## # ... with 20 more rows
…
